alpha-3,PM2.5(AVE)
AFG,62.8548565825039
ALB,14.6340083732708
DZA,37.2309558775069
ASM,3.76341150774918
AND,10.8794724208596
AGO,36.2404791658913
ATG,15.685942573366498
ARG,14.1481671684957
ARM,26.972893316184607
AUS,6.12680642067615
AUT,14.9651883082137
AZE,32.97762008056289
BHS,12.7911417912546
BHR,79.6909995433267
BGD,101.01715691177401
BRB,18.4148125845094
BLR,19.798731070760105
BEL,16.0434323655997
BLZ,20.1815989382156
BEN,95.9603228472066
BMU,10.474017640624801
BTN,55.7988897208922
BOL,22.042692250799398
BIH,39.271780888893296
BWA,23.137204076581998
BRA,12.652858927119803
BRN,6.429309072855362
BGR,25.6466876715164
BFA,110.730801818789
BDI,46.2829346161166
KHM,26.141334087365895
CMR,139.705790069454
CAN,7.52522448210649
CPV,66.6417710815881
CAF,66.3202328866047
TCD,95.6736090982915
CHL,21.9671148974017
CHN,56.3301479606088
COL,17.1193877302592
COM,19.1463515776172
COG,55.8327151145335
CRI,18.5305459530294
CIV,57.7713728214867
HRV,19.8156078689513
CUB,16.6241175011674
CYP,17.8663963175858
CZE,19.178690549118606
COD,56.275163854382285
DNK,10.3287442130176
DJI,71.70929765928071
DMA,16.873336936105403
DOM,23.6981959706751
ECU,13.1676851006557
EGY,126.028231544236
SLV,33.3860055798232
GNQ,71.1797619613442
ERI,50.514481222332705
EST,5.92830524510301
ETH,49.73530570848151
FJI,7.65856374186755
FIN,6.23426747692918
FRA,11.869337804214098
GAB,47.3946045933977
GMB,95.0438707054732
GEO,20.734698110631896
DEU,13.4577960902726
GHA,54.2425864426318
GRC,11.298313176257803
GRL,4.07118389966742
GRD,18.498452997828398
GUM,8.59118458898004
GTM,28.5220862023456
GIN,46.140921243423904
GNB,59.1648448178729
GUY,19.7440739532873
HTI,23.5480471708712
HND,29.4975112127548
HUN,24.5706816292238
ISL,7.29839003951589
IND,75.80079115666192
IDN,16.7459821768331
IRN,48.9547664337527
IRQ,73.25872704553291
IRL,9.16863321829827
ISR,18.6846113049764
ITA,15.4836045209836
JAM,15.0716359295396
JPN,13.158396009281399
JOR,37.2142601688918
KAZ,19.6559044221487
KEN,16.2949307897723
KIR,4.08635963009261
KWT,110.95721656188101
KGZ,17.9103037216191
LAO,27.672589254289196
LVA,14.588007128182197
LBN,32.564829603468496
LSO,26.918224691450305
LBR,17.3323353425192
LBY,63.716760485845796
LTU,16.717857788765
LUX,16.0972760703294
MKD,31.92141253655989
MDG,21.4749647374828
MWI,28.2598232051121
MYS,17.607714524604198
MDV,26.8618856113532
MLI,92.21011675432301
MLT,12.14084394615
MHL,11.0860703381234
MRT,123.634584427315
MUS,14.463053460206801
MEX,18.8291038884045
FSM,8.667210755892059
MDA,19.9432133698146
MNG,29.6850012866773
MNE,20.3556899562909
MAR,25.411984621993398
MOZ,20.9872268685794
MMR,48.8113588116187
NAM,25.8924437370798
NPL,78.4971334937773
NLD,15.230050093030801
NZL,5.52544659504709
NIC,22.7088486773581
NER,203.74389172404
NGA,122.478442019449
PRK,36.0152757293651
MNP,11.2866785979114
NOR,7.8740675988141104
OMN,77.9621781041318
PAK,75.7507424307374
PSE,18.9014149953117
PAN,14.1259977592616
PNG,13.677882555438302
PRY,23.6930541373862
PER,26.0545956013598
PHL,23.2134941010849
POL,25.5999126145796
PRT,9.49119811125022
PRI,20.0552886987372
QAT,148.241398279962
ROU,19.064414979412106
RUS,15.5005356008469
RWA,52.7901301247164
LCA,17.3478257964345
VCT,17.3743195449532
WSM,3.85707279754415
STP,15.427656593015099
SAU,187.871360841979
SEN,56.766336081388204
SRB,18.846788908494002
SYC,14.8388500960206
SLE,42.1306710541791
SGP,25.028502361568695
SVK,20.3309074591948
SVN,17.823508827698603
SLB,8.51582839068673
SOM,23.8882875144736
ZAF,35.9124774744138
KOR,28.6818235272701
SSD,48.703123805914004
ESP,9.96082401537934
LKA,25.635207569235806
SDN,77.7210720463093
SUR,21.5324734886568
SWZ,24.1518154498694
SWE,5.19528248299983
CHE,10.5120866693743
TJK,61.3543044228267
TZA,22.349307273382
THA,23.1725896008027
TLS,17.0005339007064
TGO,84.144390343553
TON,3.99359392557504
TTO,16.812272959883
TUN,35.565679066166204
TUR,37.2539176415398
TKM,37.7417613032096
UGA,73.5117227542261
UKR,19.2060622900065
ARE,105.12373593579599
GBR,11.5202870767364
USA,9.19693412255931
VIR,18.381432048545
URY,11.523398492801304
UZB,46.691075703348396
VUT,8.84873526109384
VEN,26.3311809052248
VNM,26.2859064138306
OWID_WRL,49.6734650971597
YEM,72.5538647757989
ZMB,30.550294963474396
ZWE,24.513034972283894
