Value,Count #means number of cell I think,NAME
1,326.00000000000,Indonesia
2,55.00000000000,Malaysia
3,151.00000000000,Chile
4,192.00000000000,Bolivia
5,219.00000000000,Peru
6,579.00000000000,Argentina
9,579.00000000000,India
10,1971.00000000000,China
11,7.00000000000,Israel
13,1.00000000000,Lebanon
14,191.00000000000,Ethiopia
15,105.00000000000,S. Sudan
16,78.00000000000,Somalia
17,100.00000000000,Kenya
18,167.00000000000,Pakistan
19,21.00000000000,Malawi
20,156.00000000000,Tanzania
21,39.00000000000,Syria
22,31.00000000000,Somaliland
23,150.00000000000,France
24,24.00000000000,Suriname
25,37.00000000000,Guyana
26,21.00000000000,South Korea
27,27.00000000000,North Korea
28,117.00000000000,Morocco
29,19.00000000000,W. Sahara
30,7.00000000000,Costa Rica
31,23.00000000000,Nicaragua
32,58.00000000000,Congo
33,392.00000000000,Dem. Rep. Congo
34,8.00000000000,Bhutan
35,146.00000000000,Ukraine
36,59.00000000000,Belarus
37,150.00000000000,Namibia
38,231.00000000000,South Africa
41,57.00000000000,Oman
42,98.00000000000,Uzbekistan
43,685.00000000000,Kazakhstan
44,33.00000000000,Tajikistan
45,18.00000000000,Lithuania
46,1456.00000000000,Brazil
47,38.00000000000,Uruguay
48,382.00000000000,Mongolia
49,6065.00000000000,Russia
50,18.00000000000,Czechia
51,98.00000000000,Germany
52,16.00000000000,Estonia
53,19.00000000000,Latvia
54,172.00000000000,Norway
55,167.00000000000,Sweden
56,126.00000000000,Finland
57,57.00000000000,Vietnam
58,31.00000000000,Cambodia
59,1.00000000000,Luxembourg
60,14.00000000000,United Arab Emirates
61,8.00000000000,Belgium
62,16.00000000000,Georgia
63,4.00000000000,Macedonia
64,7.00000000000,Albania
65,16.00000000000,Azerbaijan
66,3.00000000000,Kosovo
67,171.00000000000,Turkey
68,111.00000000000,Spain
69,39.00000000000,Laos
70,43.00000000000,Kyrgyzstan
71,8.00000000000,Armenia
72,16.00000000000,Denmark
73,305.00000000000,Libya
74,33.00000000000,Tunisia
75,56.00000000000,Romania
76,22.00000000000,Hungary
77,15.00000000000,Slovakia
78,85.00000000000,Poland
79,19.00000000000,Ireland
80,69.00000000000,United Kingdom
81,26.00000000000,Greece
82,133.00000000000,Zambia
83,12.00000000000,Sierra Leone
84,39.00000000000,Guinea
85,15.00000000000,Liberia
86,105.00000000000,Central African Rep.
87,324.00000000000,Sudan
88,4.00000000000,Djibouti
89,25.00000000000,Eritrea
90,22.00000000000,Austria
91,86.00000000000,Iraq
92,73.00000000000,Italy
93,9.00000000000,Switzerland
94,328.00000000000,Iran
95,10.00000000000,Netherlands
97,56.00000000000,C??te d'Ivoire
98,19.00000000000,Serbia
99,222.00000000000,Mali
100,39.00000000000,Senegal
101,155.00000000000,Nigeria
102,18.00000000000,Benin
103,213.00000000000,Angola
104,11.00000000000,Croatia
105,5.00000000000,Slovenia
106,2.00000000000,Qatar
107,350.00000000000,Saudi Arabia
108,106.00000000000,Botswana
109,69.00000000000,Zimbabwe
110,29.00000000000,Bulgaria
111,89.00000000000,Thailand
113,3.00000000000,Haiti
114,9.00000000000,Dominican Rep.
115,221.00000000000,Chad
116,4.00000000000,Kuwait
117,4.00000000000,El Salvador
118,19.00000000000,Guatemala
119,2.00000000000,Timor-Leste
120,1.00000000000,Brunei
122,439.00000000000,Algeria
123,141.00000000000,Mozambique
124,3.00000000000,eSwatini
125,5.00000000000,Burundi
126,4.00000000000,Rwanda
127,122.00000000000,Myanmar
128,24.00000000000,Bangladesh
130,127.00000000000,Afghanistan
131,3.00000000000,Montenegro
132,13.00000000000,Bosnia and Herz.
133,40.00000000000,Uganda
135,18.00000000000,Cuba
136,18.00000000000,Honduras
137,44.00000000000,Ecuador
138,195.00000000000,Colombia
139,74.00000000000,Paraguay
140,18.00000000000,Portugal
141,8.00000000000,Moldova
142,100.00000000000,Turkmenistan
143,17.00000000000,Jordan
144,27.00000000000,Nepal
145,6.00000000000,Lesotho
146,75.00000000000,Cameroon
147,44.00000000000,Gabon
148,211.00000000000,Niger
149,49.00000000000,Burkina Faso
150,7.00000000000,Togo
151,39.00000000000,Ghana
152,5.00000000000,Guinea-Bissau
154,2317.00000000000,United States of America
155,3546.00000000000,Canada
156,359.00000000000,Mexico
157,3.00000000000,Belize
158,13.00000000000,Panama
159,154.00000000000,Venezuela
160,79.00000000000,Papua New Guinea
161,190.00000000000,Egypt
162,80.00000000000,Yemen
163,182.00000000000,Mauritania
164,5.00000000000,Eq. Guinea
170,1.00000000000,Siachen Glacier
171,1.00000000000,Baikonur
172,1.00000000000,Akrotiri
173,12528.00000000000,Antarctica
174,1441.00000000000,Australia
175,1381.00000000000,Greenland
176,4.00000000000,Fiji
177,60.00000000000,New Zealand
178,3.00000000000,New Caledonia
179,106.00000000000,Madagascar
180,45.00000000000,Philippines
181,13.00000000000,Sri Lanka
183,1.00000000000,Aruba
184,1.00000000000,Bahamas
186,7.00000000000,Taiwan
187,81.00000000000,Japan
189,43.00000000000,Iceland
191,1.00000000000,Fr. Polynesia
192,3.00000000000,Fr. S. Antarctic Lands
199,1.00000000000,Barbados
208,2.00000000000,Puerto Rico
211,2.00000000000,Jamaica
219,1.00000000000,Cabo Verde
223,1.00000000000,Isle of Man
228,1.00000000000,Singapore
232,1.00000000000,Wallis and Futuna Is.
234,4.00000000000,Solomon Is.
239,1.00000000000,S. Geo. and the Is.
240,3.00000000000,Falkland Is.
241,3.00000000000,Vanuatu
